{"hash":"0738c800e3749017fe7d41f2a4d451c44b1492e8","data":{"author":{"name":"John Doe","path":"/author/john-doe/","bio":"Sociosqu placerat tortor vestibulum inceptos ligula faucibus fames nibh sodales imperdiet vulputate","image":{"type":"image","mimeType":"image/png","src":"/6110110193_240-420_Gridsome/assets/static/author3.74b2aba.fb3239b1ca9d78937c83c37a93ff5d81.png","size":{"width":528,"height":560},"sizes":"(max-width: 528px) 100vw, 528px","srcset":["/6110110193_240-420_Gridsome/assets/static/author3.74b2aba.fb3239b1ca9d78937c83c37a93ff5d81.png 528w"],"dataUri":"data:image/svg+xml,%3csvg fill='none' viewBox='0 0 528 560' xmlns='http://www.w3.org/2000/svg' xmlns:xlink='http://www.w3.org/1999/xlink'%3e%3cdefs%3e%3cfilter id='__svg-blur-0165a25a45ddea40b6743f47fbf1bd41'%3e%3cfeGaussianBlur in='SourceGraphic' stdDeviation='40'/%3e%3c/filter%3e%3c/defs%3e%3cimage x='0' y='0' filter='url(%23__svg-blur-0165a25a45ddea40b6743f47fbf1bd41)' width='528' height='560' xlink:href='data:image/png%3bbase64%2ciVBORw0KGgoAAAANSUhEUgAAAEAAAABECAYAAAAx%2bDPIAAAACXBIWXMAAAsSAAALEgHS3X78AAAXlUlEQVR42u1aB3BU17mWBJOXefPmlSSOHSfGBWOEQAgJJIR6AwTqvRfccdweySR2MDhgbGNj40JiiIMLuBEHg%2bhFbVUAIQGSaCqrVW%2b7q4K6tNq93/vPufeuroSEBYg4byY78885u3vvOef//u8v59xrYfGvz78%2bd%2bzTqrlg0aE%2byPs6zRkLfVWupb4qRxKVlb4q20ps%2bXf5Pwtd9WmL5sZ6fp%2b25sL/L6V1mtPiwmtLJYW5otPbK49YTXaMjrI0yzZ11nS6dxq/X5Mn/l6%2bz0JXc%2b6fU3G9Jn%2bkX5Vr1abOnHYdONVnf6yvyruL/r%2bfLP0wAUOielivyX2Qvt9LY/xEV13wb%2bOOX5U1ja6zZH0amwD%2bJ2IGKSQpSDRXZ00bYcOpn5BiQaTkO6TscZJLJK0kQ501ueiozuFC340k10gaSEpJ0umenSTP0diOutoLPxqZS2UlsmQ/d5V/GuUZA9rLvpP6eY/QQv9MirT0NZ2BQVuIodaz6G04hWu1uWjXZIMoLpilKhudBERXbR6/ZpCuHdYVYbClAAwoGucqjbeeFP5vkQFZHIT2iqMc9B/O36uLzH7fWfY3CZCcNczCTIEuUpYWayQZpt%2bGJUubSIQJxCRdM8zuke4VeggUo/4cA6KeAHflIFRlT5Pm%2bwGtr86yeA8gi2RYSfR8TWi/QBZWscUaZGXbRKHfssz9G4h0bTZnhwQMA2Kov%2bk0%2b72PMUxS3kpytR/C%2bgWjfJIs49Fdlw9p0SaFMt%2bn8A1FBkLqDzFXojlP8DhQcciSKU/f//EA0KI48thmDk6F/eTvnL7ywm9D8bGsMI9HbjFAsYGsHy3NO000yOkfxPqyH0YMNBfwxemVi51akVlg7GtkrqAqUqZgvTr7H2n9TG79gfOvSkBkF0jWN94B649yB8kljOJ8OZFKQ2jrSv4R1j9joa3MVlo/iFnkRtanYMlF7t8WC8QYIwGg4tVXV8lHLPWaU/IdzvsqCz35W1vFMUvp%2b7FB7pOi7yuDnlLpKQJAyQLTNaobSGl3ZUa48/SvyjZPRpMvaqtSwZyupGg91vrj9aeABcOswCID7BLdMsOKuaW8F7lj9T5zAUXe38kW0TaO9ccyQFt%2bZEpBYIBLZXQ3resBySCW%2bPSObnjymFhKYPyK1e%2bd4iIo709k/Rxoyw6j/sJOtGlyRrnD7WUEXkYPs4qTDPGyFIynsd1ic/Md2DEyaukrM/gkkvVf5NYXy1xe8IxVjH/X5KP18h5Un97I%2bzej/HjXmlklVYhiSswuaWnWW8p7E9pxTj0AHVUZvNiAORhmn%2bOTq0dSnyIDSC0DgDLE1c9QnfMcdOp86CrT6Z6McUVXmQFtJWsZS763KBJjDgXDrjoeDD3vaDDUVeUpg58H29VJQU9eCLEhE7qKk4K2/ARaSbRlx6lVoevyG2jISURPA%2b0Im86hvaYAHWOE/dbTWIT%2b5kKIYxMY0jh8LBI2tp7maBPdSJ6bgiF3gx1SMJzGYlVr9bmp9P1TcgEk03%2bHHPzYQpmft1YcE1ppQd36agz36QRjfxuM/XoYepppS3sAh3c/g%2b2bV%2bHY54%2biKud3KMt6GeXZorB%2bVe5LyP7mCezYnIq0L99EfZkKhu46PoZxoJ3G1As97XXQVucJrRVHBB5PKjMYCCYOWFV2s7xdZnGqXZ0%2bhWd71YUs6FlKZ3v/RZM1ctqpM01t1flCd0czuru7BIPBIHR0diEzJ0/4/Ks92PXNtziWnolydQ36B4y4cukCTny3CXXZUag%2b5oXqE35cNNSvzw5F9v5XcK4wH/39vdBU1yA9Kwdf7NmLT7/8hsbJElp1bRgeHhbYXN2dOrTXFjBGMBDGrQynhvoUVdvVGcrKL4rX/Wzfrs4QuvT1QnfvAFMeJRcvIiAiSphl54CH59tzYf1F7p54%2bvkXUHShBOzT19WEwcY9GFK/SrIOgw2fobdTw/8rr6zCmpfXYonPUijHedjOHl7%2bAYIqLx/G4WF09/YTCFruCqIb8Jrga5Gp6VbMZbVTcX7IUl9TvZoPKqH7HduSivTPQld7k9Db14%2benh4hKilVmDFnHuxdPWC3xM0s85yW4CHbBZhtvwh/%2beQTsiLQ1TuMnt4Bkn509RhgNAF796fBdrELHpw7H3MdnUeNwcZkY/gFhgharVboHxhAV6eOuQIDwCSdHOnJXX8mu0Fn2b4pYIB0ujsq99fkMABMzAc7tDUwDBtxtbwc851dJxSmAAPiEQLhdEEBhg2DIgB9Qxga7EdZeRm/Zs5CJzhQO/Z%2bBoy9qztmLViI3PxTEASgQ99kDoaMkYyZxNB42Q0aG2tu0/q1xVTzH1Xk/pyUIUY1dlzFIjClNF39RQwZjNBoNER1L67keAAwBRa4uBOVHfDp7t2c7q01KrRUHuL9oydOcOWZtScCkf1nTdecOXsWJgJA31jBMoNUH5hL4y%2b4G1SetNJrci200tb9FouffIuWa6DBzPTfN9hylm98xDydhZYKFa5d60BfXx9iUx8lv13IFWUKj6fArAUOPLgZKEu0nU1Gx5kw9HVUovRyBeycXca9T6n80uBQkAvw%2bZor83nqlc8Tu/jmKLuByvX/kN237XbODBs6oSx972E%2bJqUck7zxYRZorLrArfj1377Fg/PsOJXHU4L5tYuPH%2boa9ejW7ER/cQQGS6PReeV1dFzrpQAaCWsHR66sEgjWd3DzwP02tti6bRufq7n2KtUHzPoqMRBKO0SxKMpZKjH29rIBO3FV0D%2baWV9R%2bvKylB2ANl46ioaqixgcMmHV06tx/xxbWrCnmc6sXUjuMcPaBus2vQVDbxM6ixJI%2bQQMXEzCtcIIGK5dxkeffIH7rOdg4Zh72VgsAAZFElhdfWht0KCu9Ih4%2bMoLsCyZBQbx9Fi1WVkU3dKnvaFUPvuTi5%2b/DLUWjpz5qRW1Oi0k6%2bNn0HA1A61tPYhKSubKsqjPrG6zaDHum22DwMgoNLZ0oke9DYbSCAxfSYHhcjKGL0aj%2b%2bp6dHT2IPmJp/DLR6x5PJjn5MwZMWPOXCwPDkFldRPaGy8i/aPH0Xr1uBkAvXhWqNgbqPjDgu6Sd/jeoE3S5aY%2bWk2BeW9dp%2b23ZE91pI2HUdr7j%2bzsqvOQ9/GTuPztcnQ3Z6L92gA%2b2L4TITHxcCbK%2bwWF4JWNb6C%2buQtdjZloyA5Ba340WvKiuLTmx6AxOxDtVXuga%2b/Hm%2b9%2bCP/QCDh7%2b5FbROONdz5As7YLvW3FqDwcDtW2aGgrMkcdtshxgGUoajvJ8vfK6ZDpcqsuIAW/nHmMXuyJjn7MiQ93A8rB2dtXQ71vJXouRKG55F0MUhnb1t6BuvomNLdSSUzlbIdmFzoKY6jqi0Dh3wNwfn8gLpCwviY9nLtCWzmxo78Vrdo21NK9On07hnpbob3yV3IbAupEENK3JvCN03UHLlIc6K7PZ3Eg6LbiAKuiFP4fLG99rz/ry0RHbT7y/vocCnb4wVSeip6iMLIqWbdoDbSlb0Jfug7VGXE4/5kPcj9YjvS3luL45qWkyHJkvLec90/Sbznv%2b6PoEx%2boj0VCX/IH6Eo3o/Xc79CSH4uuwlAIFSko/XIF3ZPE3a5tvLMFdZZBaDvP3GCN5MLTb6ki5ClkxP9fFB9I8EdWoxlAlrjWUICiPWtxaL0LLTSB%2b/bgRQpwxdEYKImALicE6Zt98d1LPkhb640D67xx8BU3HN3ggmMbXXmf/Zb2ije/5thrPmg8GYRBure/OApDNNYQxYr%2b0iSceMMDuR%2bvRmcduWNl5mgARh%2bVbZPLYvnx%2bk0ffo4AkL2Jl7%2bKDGAGgRbRWXcK5ZkfYf/L7jj7cQAGLyXCcCUJ/SWJMJaloHBnICnmheLdgWjJioJWFYnWU8%2bjr/JdDGjeg/bMb%2bg3igXZkbi8J5iDlPOBP1d6gJQ2XE7C8NUksn4w9v3eBSVpm8wAjHNgOjwoGkvaF2RY3tKTozEMWDshA3gqzEHTpUM49sZKHHjFC7kf%2bqOZFDVcSaRCJxaH/uiDUx%2btIAono7c4FvUXP0FHexPa2nRcOtpbqKjZh%2b7iZECdzIHav9aLg2UsS4IuNxpndqzAwfU%2bfKyagq/RUZPP3W88BkiPz3aOVIS3wgD2rH/k%2bCt2vBgwNg6c/uwFojNRer0vDr3qg/w/%2bZNfL8f%2bP3ih7ngEUJWKrS85wsflQQT7PohA7/u4BPs%2bAD%2b3mVj7tB1MZGl9XgyN4Y3Md5bh9PYVOLLBh1yExlznjuw/JTPleBU6wfGawSTGgPXyGYb%2bVh%2bhK7KAg1464tKP88CTA0AWqT7zFVf86EZfWrQv9%2btDZDXm252nY6HJCMdKj3uxwu0eBFK7UpIALr%2bAj/PdKNwbQDVCIrc0u/cA3XuY%2bkdfW4oDa91Qlv7ncenfpnxq1Hz9s8ObL4Sq0vleQMwI539Mg1ey5/T8BHgcN2AL6qg9hcKvX8KBP7gQCEs5CAyMfcSAmoPhSNvuDU/Hn8PP%2bx64edwFb/e74eN2N9yp7%2btN7aKfY%2bcbS9CaEc1dQAaSjXVgrStydjxO0T8Xo2qQ0fSXj8q7qA64z3w6VHn0VtLg%2bbGV4Pv8CFo9%2bunvqCc%2blJq0FRnIfD8eB2nBMgjMd1VblmPDaju4Ot2F13wdkb88HF8F%2beLTYE%2bc8o/A%2b36u8HS6G79NtYHq3eX8Hkb9Ixv9iAmeFF8C0FC8H%2b3VuZxxY0%2bIpXZY3Kyp0kT/P2HJdoS3/GIVfwwmu4Emb86oYmhkHz6yEMYCKooaS9Jwcku4GYTDBMLxDX7Y%2bdsl2BqxGMNhz6B2dTyyXl2OzD8uQ/lz0UDEs9gZ6oFtLzrya9k9R%2bjeQ%2bs8eKs5tQudxDCZ%2bgrrC0r6iyyVN0MqK13N2dvZDOVZyI%2bd5P2A%2bCAi2zDqKbDy2V%2blGA%2baLh5EFgWsNHKHw696cSYc3%2bSHjI3LcHztUuzb6ImDGyhGkJX3veaJo6/QfwQGu%2bYIoz75PXOl42%2bFUmz5gqdapfLjW5/5vipdfKUuzZK9m9helnY7p0FFFr1X/mIhv56mrz59F3vLS9xyXvcoXH4wItBCBaIqPy4vSXtdOL45WDi4zovEBwdf9RYOb6SgtkH0b%2b7jJOy3g3/0Ea95xUs4vMFPKPjit0Lz5aMCZRg%2bpnKOMe8MmKTXcozE1PmjXp%2bpLZqaFx8Vh6KhveLjcNOY93jEF5zEVDlMfsoAMpHlTNrydJTsTYXqQx/hBJW9LFOwCM/8nCnM%2bkyOve6HzK1%2bwtnPw9FwYS8LqqRYjomUN0pnkPLLVuZ3j6Q1SM8Gcv53VNxST8GrM7pavieQXUEOiO8yV6CJBhkQzAqMFexMjv3OagbWZ6%2b8ddflsoceQ81nnzfUZgWh4li4cCUtBMV7AlG0OwCFu1bi/FeBuLQvGOVHwoTqjBA0nV5lJDei/ZT42lx/8xmwrbj86hzb7Eiv2rGMNCiVvvvE94YOmKnP1j7F7wKeslQEyDx0X4S48%2bIWqSXJ0amzv2mpyHq7qSzjGW2lKqCjOt2pQaO7p684qWD4ciKVwNHGJtoC1%2bdEok4VwYX12W/0n6mvOJ6qxYQGbdnhmURre61a5d9UlvlES3nm6zT2FzRHFomaxSE2NzpL2Pw1%2buqC/xTXmGulXPOUvwrLXoOVJnqIQNhCtAtrrVQ9fOHUwZ/e6H7aHGWiZhVtbBKH%2b0sSSElS9EI8bZ/Flv02eDHRhEq%2bkaq%2b0VgFqv3/01yRzV6v9RfXkOuk3PresTdF5JcSdWqV5UTXPLvmhXuDEx4NXhaV9PJsj/CctzfFnIYm%2bdO%2bkgSdkTZIA6UJJlIU4wn9JxhoI0XX9qIqefdX2%2bMybTzDCrzC4jcGxT8a%2beTzzz4woauqsyXL38GXpbZu3WDx5e7tvP/hti3Tvt3zGX%2bHN%2bfQn3%2b0MiYl2jss8YBbcHybe0gSXIIT8JBrBHK%2bSwKaV5GCSUxJQVJ0XJFBGKAW9atQk5sMW98IOAXEwT00CW5B8V1eoQkZy6OSH1%2b7/jec8leKTk7f%2bv7b01n/73t2Wmza/NqdUd47NN7C1jeW992CEsz1NVk6yiMk4ZJHaDLcQpLhGpQApxUxpgV%2bYYaZLsHG9b8LNBIDhvuKEwRGc6bgCAhmy4vnB0x56nefTxCgSRo%2btTfGaOMRbJzvG2pw9I8ysrHZHB5hKXAPTqj1i0hcLa/DeWWceU2ugXFTq3xAbIrFPN8YafB4jnZU6qM/I4vvdyfFXYOTsCQgbtglMH6YWlI%2bXLDzDcN8nxBhhs1C4dMtK4HqVAhXOb1ZkONtv0IIIP770KUEujYFFSdj4OHtLMx2DRBoPNB4gnNArInmMPK5ghKJFSkgRuTT%2bvirs65B4trYZ2lk0tQovywy2cI5QETUMzSBT7AiJnk%2bWaCOLUBSnC1KoBaLlkcJ831COQB2PiGYaeuAex%2beizXP%2bKAyPRaooD2/hqSCXIP2%2bgIJypP4OQCqUvhx%2ba6tgVjgyO6zhZ1XICkfDjamw9IIPoc0l4laA2MEuUaPd1iCP1sbsdEMArnK7Sn/6xefZBS3kAaeJtHLnlhwjVmdFjFEItBCWF9YvDJWsnwoeOsdjNkLnDBz7nzc9cBcWNstwJOpntj59kqovgnH5WMxKD8Zi8J9kdi7PRjr1vjBw8uJXztjti1m2y2EracIgB2NycYl9xIUczIxuBIbxH5coMQEea0Wv35h9a0DEPvYY7z1i0ziEdY/OnkWKd/hGswnNCiswRdkvzRCVH4MAI8QC2bbOeDBOQTE/XPxc0nBh2zmc3AesLbFL2bOw09n2OBXs%2bbR9fZ4ZL4DyaLrAGDuIAMus465nktgAmhtwrKoZP6qDDFimhSjbk35qFRR%2bYjkVTzlbXnzxR8R7UsY5ZTKy4tw8o8esbwZgBDMtl%2bMWbZMmYVcrMmqs9nz/nkLSHk7SRZwpa3tHLjV2XX8HjsCgLvAyJi21JKbYez8DATGBHIHXVTKql%2bILpDE1x6Z8tjNA/DEs0/ydpF/LEfSJzzxHY%2bwVDapwvJxZiqyduGyyNEMoHa2vTMpYz%2bilATEjWSWGQBHzPcKghhPRAZQHIByzlFMCIg3SIGRl8W/dAy1fOLXT1nEPbbq1lhAlOfUD4xLsSVkKejEKyeUkTcvaDwWWDssGQXAZES%2blrkPYxEHwFcEgFnfVTHnGBBYa2R1CFGfxwPf8ERuwI0bf39zyjef22Jh4xVlJfpT4i6GrOhrIghjlXdeGTua/qwlf7Ve6IpZ8%2bxHrKtQcCLFxdaeu4%2bo/AgATNhcbhSHWF2gBEF2BeamlLHEeni6u8XTzz9lcZ9T0OSVf/r5p5n1LaUYMIOlGWlwk1J5JQCOY6wvAzDH0WMUAJMVBoC1g4ucAs0AsPEXcJcQZfGKGPM6FCwQ3KgSJR1cJRZY9ZZ/dnMMkNMeFRSrPUbyPfmZOf1MigE2zj63BgDdM8fR3QyAnAGs3QOwLOZxfHfoOHZ8/g28wlKwZMyaWJBmjCUWbGU6OK2InebkHzt55d/e/BuLed4i/T1DEtKkyG9URNxRAMgLcJCDoAKAua7LzABMJgiaXYDusVnszceQlZ/jEYiVCU/h9NlzUFdpUFx6Ca%2b/t51YEKtcD1ujkdUpxFzzc/GbygT%2bMSL9k5584t%2bpqKiQ8r5xLP2vC4JEx7EAzPNYaQ6CN8eABZjrstQMABtzrlcwfCNXIerxF%2bEdkTruGqQ1mqS6oJPK5PulqtBy0gD4RpgLn5mEYu/YwDcRA1i7QF6wnLcpjbF8PtkUqGTCPPcVZgBkFrBYw9It83157jEZAco4QC7spdRpcgBQ0BD3AUmL2C6PbXAmAmAsCCxNyRaTNkRSMWR/U8qLRdCYGoAUZymQWDmR9ZUAGLzCU%2bEXkRStTIeT%2blANbSW1i5n/U/43TqT8jYKhCMT1qXAyGYCBNhrI0FER//vXE29ghRvpECfpMn3SANAEVlLr5BaSNGEAHMsAczBU7glYJljsdXMA0LXWi9wm2gOMmmuC9bC1GqTKNU7SZfIMoJutpNZJZECc8UYuMFFFOF4mmGwAtFniw%2b%2bVAVDU/99rfdkFGADUj5N0GReA/wP42/aG%2bDx2KQAAAABJRU5ErkJggg==' /%3e%3c/svg%3e"},"facebook":"https://www.facebook.com","twitter":"https://www.twitter.com","linkedin":"https://www.linkedin.com","belongsTo":{"totalCount":6,"pageInfo":{"totalPages":2,"currentPage":2},"edges":[{"node":{"title":"Owari no Seraph","excerpt":"เรื่องนี้เป็นเรื่องเกี่ยวกับการต่อสู้ระหว่างมนุษย์ แวมไพร์ และอสูร ค่ะ เป็นเรื่องของเพื่อนรักสองคนที่แยกกันในตอนเด็ก คือ เฮียคุยะ ยูอิจิโร่ (ยูจัง/ยูซัง) และ เฮียคุยะ มิคาเอลา (มิกะ)","image":{"type":"image","mimeType":"image/jpeg","src":"/6110110193_240-420_Gridsome/assets/static/9.4250cd3.a2ab9488c21f8cef35535302a1220ac0.jpg","size":{"width":800,"height":880},"sizes":"(max-width: 800px) 100vw, 800px","srcset":["/6110110193_240-420_Gridsome/assets/static/9.1b91758.a2ab9488c21f8cef35535302a1220ac0.jpg 480w","/6110110193_240-420_Gridsome/assets/static/9.4250cd3.a2ab9488c21f8cef35535302a1220ac0.jpg 800w"],"dataUri":"data:image/svg+xml,%3csvg fill='none' viewBox='0 0 800 880' xmlns='http://www.w3.org/2000/svg' xmlns:xlink='http://www.w3.org/1999/xlink'%3e%3cdefs%3e%3cfilter id='__svg-blur-717aed403e652045918224ec5f730f58'%3e%3cfeGaussianBlur in='SourceGraphic' stdDeviation='40'/%3e%3c/filter%3e%3c/defs%3e%3cimage x='0' y='0' filter='url(%23__svg-blur-717aed403e652045918224ec5f730f58)' width='800' height='880' xlink:href='data:image/jpeg%3bbase64%2c/9j/2wBDAAYEBQYFBAYGBQYHBwYIChAKCgkJChQODwwQFxQYGBcUFhYaHSUfGhsjHBYWICwgIyYnKSopGR8tMC0oMCUoKSj/2wBDAQcHBwoIChMKChMoGhYaKCgoKCgoKCgoKCgoKCgoKCgoKCgoKCgoKCgoKCgoKCgoKCgoKCgoKCgoKCgoKCgoKCj/wAARCABGAEADASIAAhEBAxEB/8QAHAAAAgMAAwEAAAAAAAAAAAAABgcABAUBAwgC/8QANRAAAgEDAwMDAwIFAgcAAAAAAQIDBAURAAYSITFBBxNhIlFxFDIjQlKRoSRiFRZygZLh8f/EABkBAAMBAQEAAAAAAAAAAAAAAAIDBAUBAP/EACURAAICAgEDAwUAAAAAAAAAAAECAAMRITESE1EEIjJBcYGRof/aAAwDAQACEQMRAD8AbF%2bWpsFvp6SmZamS4TiIrgE9QcAZ/Gc6C6yapsaTC6gD2mZSzED3WOCDH1yV6kdumNBNV6rUs1wts8Vuro1oJfcQy1AlaToQS%2bcZJyfOuze%2b6EvsFNdHRhFMjpCgkRzEf5S4X9v/AEZzqT0lJoULj7y9rlfZMevpnuyG7UMNJJMZKxUMuMnl7QIXJ/75GibcN5e3NBDTorzynoD1OB3IHnSB9OLPuWk2zQz2CvpqaW7cqqprlAqCwQ8URQwCpgliw6/H20Ybo3FXSelVJfrjT8b0yPTf6VgVExLxch3wBjl8dtB1dtyEOiePH8iXUE5xqGe1t7U93nraCuVoK6kJ5sUKxyDqQVJ84HUaH/U4Uu5dsVsM8Sewql4efUhx0D/nqcDSJ2fX1Js1XWxwqLpTOkIqGnLmpJPLMnXOR9/AJH30a224bjqJKCkvkDS011dViDOIpGGORYdMBenU%2bMjR2IFO470qK2SYbUdksUe3qamahVqKF43iiVeLe5kEP0x9Wepz079NaNLY4Y6yOqppffSGTDxE/Vg9R/8AdVFiSSD9IglgmUgwxzxksWBxgjsRjpy7dcjxoqsNFFRUoaaojmmaRnkcdBk%2bPwNS21JbgHmUPb2wcTxSqU0lAX5caiNu39Sk9/yCdbu1bpbaILHWxJwc8nMic05D9rEecd8dmxg6tVGyZbJXzJeaasmovbjeNoUDOPdDAKQSByVgR%2bVB86pXajprPu%2bkE0M8NNimqJopUCtGWA5jyCMgnyOuD51qi1W0JllcaPMYbbuqLXFV01DI/wClrIDJBM8rmdwMhZSzfSOf9KKoUdOuNd2zr5cKqOax3aOaot0lBUKVfEwbIJ6qMEfUVAAPnHnQl6hXO5X65RqlpSnkoyyvPETMJQcEZ7ooHgDoM6oWyqulDZLjRs5NwrVRI5I3BKRqeRjXHYsfPwBqcqqkN5lFfvQgg6/X5mTZb7cNo3NntFzECRs2JqZB/FJGQDyGSCcAg%2bBpqbRvUs1bRVl2iq4po6RHhSSBmV0PJ3KN5J%2blvBwD40AenMu2H3DQxbogh/SqkkrS1DlUWVDlQ3gqQccfuB86YVz3dav%2bbZa6K4LUUMdfEVaGdmRo2jC8eI6cRlhgDyRo7ACcYgIxQ5EclqhpngerysskoABUFcjHkeO/XVe6xianZHduDSxxEKeIXkR9vjXzc6uKjtk8kEyR9Vw8h4rHyGFJ%2bwHQ6z6C50tdTXFRXUzx%2b4s6SxSq4UBVwxwe3IaxX9wzjiUL5l%2bopIKymemrIlqImP1LKgYHrkf215%2b3bc6Wbce4q2ncVPuzJRU5iXAURLjjGR9m4rnzg/Gj6q37S/8ABi92lqY4ZYiiexT5MhbkuT1GP2t0GAcd9Dnp9Q2SLctLUB5WoaClE9PS1EIViWUBXypIYjH5yBrQoQpkvAucNgLMG2bJ3tWRrJJFNT0zKSKeoqwjEHrxKA9/g40MwUV1rNzLZ2pGp6pX4GKYcSvTPXPbI/8AWvT9LJT1CSzrIgkjwz0wxziU%2bWH3P9v86TnqBupbXu2OttlNQ1NYYwVqXDHCAYAwCMH93yNHuw4A3OpZ2xg8QAvdvSpMEVNTvHNIxT3B/M6jLZ%2bdF9j2w90qrEGpDVXN4w8rLLxb6DkHl2HQqfyPvrAuO7AZaXNDTQpSe4qlGJYCR%2bRHyQegP26asbb3dd7ZfYrvQ4LN/p46Rl5BoyRnljzntjt86NVYAdUXa4dsiPPaZltlPVWS6SRT3CNzJxZ2dSGYFMs3U5J7nz4xrctO2LRSB62hpIY6iq/iySAlubeMk%2bAfGldu7dRs/qAtxq3aOiFOqzccfxCAcLj%2bY5PjWDs31T3C1BUU1qtsNVUQPLUOamY8PZZsgcQM8gTjocY0lKmZj0bUzxZV%2bXIgxdauouVPSRPSQRCGMR5jQDszt9P9I%2bv9vboNa2z7xddusDDTipp1cSe3IP2n4Pgde3bWdd66GGmWiRyk0/0yyquTFH3OP9xHQfnOsI3e5exNA1bPHSSOrCmRz7aBRxUfOB5Pc9dUlTYOjGos4VsGOX1D9VYks36e2W%2brMlRGPekdeAC46rkZOM5GdI6sudReawVDQBDCgDcASMZOM/bXMk7suGkcr2wWJ1d25aau%2b1z2%2b3cORCyOpYLkcguceSOXb40aUrXszr2dWlmK0IZw5Ylh2ye2u20XC526uhnpXMDA5WZAH4/ODpyVnprtl7lWRw1t2SGiUe7HHC0jSkYDKpK9yT0xnuNKm42uWW9XGntLLDBSSsirI/bv0z1zjGNd7yPBFbCGW1rJ%2bpmn3ZuCzTbgsKyNDMGlYzxDAJl4Doy9e3j40dWHY%2b2rHTT7isN4Ettq4x7MlUQohjz1XkcZ%2brAyeoxj51d2vtuOKqF4WtlpKClp0WWKCQwe4wGeTEdCOPjudZNl3FVbruFTFYLIBQTRGKSslHtRqoH0gE%2bO4wo6d8alFrFO4pxD7Yz04zFVeLXWw3DiGp394swZmYdj56aqXex3KisdBcpZqUQ1jmNUj5FlwM9cjU1NU1uSBmcdQMzGUOMK0hbx2xrf21NNbLhHc6SQpPSESj/d1xg/HxqammWfGDSMuI7bn6i1VVtOW52%2bJIpExAIpU5D3jnD8s/tHfGM5A%2b/RD2%2bqnomWKlndaiV/dM%2bBy5ffzj/OpqagrAC68zXqRSzkjgajwrrlWQbYrYrg8c8ss4LSKmOaheIyP/L/ABrGs25KgSrDDmNOn0r0X%2b3jU1NTNusA%2bIPpFBBb65n/2Q==' /%3e%3c/svg%3e"},"path":"/blog/owari-no-seraph/","timeToRead":0,"category":{"id":"Health","title":"Health"},"author":[{"id":"author3","name":"John Doe","image":{"type":"image","mimeType":"image/png","src":"/6110110193_240-420_Gridsome/assets/static/author3.b8e5f13.fb3239b1ca9d78937c83c37a93ff5d81.png","size":{"width":23,"height":24},"sizes":"(max-width: 23px) 100vw, 23px","srcset":["/6110110193_240-420_Gridsome/assets/static/author3.b8e5f13.fb3239b1ca9d78937c83c37a93ff5d81.png 23w"],"dataUri":"data:image/svg+xml,%3csvg fill='none' viewBox='0 0 23 24' xmlns='http://www.w3.org/2000/svg' xmlns:xlink='http://www.w3.org/1999/xlink'%3e%3cdefs%3e%3cfilter id='__svg-blur-de5360449f7d6d16fb10550d70795708'%3e%3cfeGaussianBlur in='SourceGraphic' stdDeviation='40'/%3e%3c/filter%3e%3c/defs%3e%3cimage x='0' y='0' filter='url(%23__svg-blur-de5360449f7d6d16fb10550d70795708)' width='23' height='24' xlink:href='data:image/png%3bbase64%2ciVBORw0KGgoAAAANSUhEUgAAAD8AAABDCAYAAAArv91lAAAACXBIWXMAAAsSAAALEgHS3X78AAAXI0lEQVR42u1aB3RU15keASdtT/Zkk03irB3bYNMRKnT13nsB9WITE2zWduLYxBQbG5fYBuM1cYHYxthxYogLRYgiJI06aoAEqFdQmxk1UJ8ZvW//e997ozdC2AJEvHtO5pyf%2b3h67977/d/f7r1PpfrX71%2b/Kf9pGop429FQptLV56p0dVkWujr1NGqniW2mdM3Fgkt9jkrbWMLf0zWcUXU0nv9/ALSxVKVrOkcAs/n/tfX5Kgng9M7a09Nvpq/OmhP8PVGypmkbCkVlMAWScv5P/XQN%2baZJ6erzGOjpg0WbzZ5pv1w1g565i8DMJrGmZ2wJHEmWDckCUtpM%2bvsvSInfv04Z1ancYjRNZ01K0DYUfPfAtfUFqs7aDHFSxBJeUSilLnspTXojgTxMUkbSTjJ87XIe%2blvyufRdyQPdE0j6SNpILpCcpvfeof4SdfXZs8cs4qQFAy6NpeogS/vuGBdZliajnjYGOiuWAOR31quh1xRhpKMQAwS0tykbXXSPlDVqJnWZ6G7IwtWmHK4Q9vxIh/ge9TNEfZ%2bgPr3Hxs2xENvs7xJ8volxyRzJrNXpIwR4sLWAgRRIDASAiZFkVGL5RjIqPWdg7zFhyhpuP8P7Y9agVLyy/Sebe54ZCxTZf0STvmjUlTDQegmEwFjtlMB1jv3/RsL/zp9lipOuJWUY0XOeKWA7H7c2fbqo%2bMzvDrwcyWlSb412EvC6jGGdEsQ3g/02ERR9MReRLCTb1tzivgP2TYPXZVvxyUqTk1i7XeAmUSjAMNzO4oA6VcwCxy1Y1GfB75/o67mqtiu1xHqaBF79VxbYuHlODeM3tgIKkCwwksKdlARo6s58N6wz/x4DnXEngCvjgcz%2bUTZ%2bVw1j/4yq858R%2bZmZtTdfItblgKP%2b0KApnpB1XW2GqVVe37oCxtyKZQFS/AqZCF2t%2bs6D76r4irEt5dnce1lxwnL0RNGcgx6nhKliX88Vrt4rBl2ZiOw7GeHFkpJAyKxvM2iLwXOyYnKKQMXYus4KbksBYlAd7WnkCu8mAn4lziXHovNO1v0sqsqsk5/9mAZvvtacA7l4GWeiElA1NFWpJMf49VSwL5m%2bxH7WU1K%2bny675R1UgFpiPSuOBZ4bsd4p%2bXlXfQ6unP0QbRc%2b59dK/7/N9GdkJTO15woBU8Wpbci9M0UNS3Fd1SkWkhJOsrJTivSCTjRHMyVQFYauhgJcLnyJFLCXrvP5PVkB3yg38nc2jlxHUNrrFdOeo7y%2bYIssTVPpHUxv9dmWcnrrNAU6NSQlSADSJfD50Bb/Hi2lu9HdVMjv3YBJ7hbdDbT4oQA6liXSldYij4Nxge89MfDJsWgKi56OxlKVpv6MonP1n3igE9OboKs5LWirjgvamjRoqtMFbS1NsD4LrNXVnEJ7bgzKTz7NJkmmb64cGRwHVZuGpnNfo7nsMDqqTtL7Gbwf9h7vt%2bY02Di6mjQ5s0gFT2abtj7/P%2bS1hhyYp%2bTXKQY60fwbS75Pg9X2Xc5lkx7V1Z4Wui%2bXCJrGXKFbUwOMjghG/RAG%2b69heLAP0Hejndj84tNX8MrGQKg/9UNF6mqUHSWFpMShLCUWF1LWoPTLILz%2brBf2v/8cKsvUMA7pMDLUh8GBa9APDwCCQbjWfQUdjTk0XqnJBTpNRU/WamVMmmqTl03Kh21AMK0Ta0JPe5XQ1z%2bAoWEj%2bgeGhINfHcJTm7Zi7YbHseGpZ/DyG2/iVGYuBocM6NTp0HThIDpL1kOXG0DiQ%2bKPzsJEtJTvRWtLE/SGURSWnMPO3e/iyY3P8n4ef3oj9u7bD62uSxgxCOjrH8RVXbOsAIO47lf/QzT9tGmtTVVTFOgaS3igo9WbXMfv437Gonx9ttB3tYcm0y8MDQ4IT2/Zil/PXSDMsrTGg1a2eIDa%2bxdYYraVDfzCwnEqPQPsN9DXhSEtrdNbD2Ko4wT6e6/w%2b2UXLiH2obWYZ7uMv2fqZ7EN7qF%2bVyckQavVCAMDA0JfXz%2b6mouZy42yTRKyxk6tKednW2inYqXXWZ06ltvr835Gg2j4YGwHpj5H6O3WQRAEqHNy%2bCSt7RxhY%2b8E61UOY9d2Dphrs5T//W8HD2J0VEBvnx59Q8DVPgMMxGZeQT5/ninMit4V33M09bPE0QW/nrcQH3y8nyuqt7eXgad5nOaxR2Q/K3FKTb%2btD8rcHj3UNpbetDXpQreulU/mswMHcf/CxXzSlivssHilvZmw%2b3NIAZ5BodDptBgcHERvTyeu9V3DyMgwfkPmPZPeX%2bLgbHpH7oe17H3W/5YXX%2bLj9fR0QVuXI1d8sukfEvf6Tk3TNBbfpp83nuX7ZKwzSaOf8aWrVNhoqym6X67gk0nPVHNwjLXxwJmw%2b/OXLIdHYDBa23Xo625Ea8Gj6LqchaER4OFHHyP3WMKZnuh9G2J/5iIrvLNnLx9P295EGeC0lF4zZdPXkov%2bXCLKQtNwG8tcXfUxxWZh/k%2bo8w42SKepnM1Aa5UafdeuEps6YjWE/HU5BzqefWa6Dy62RcJvHsGIHui88CqGS33QWfoYBOMIBcadxKwlZ3gi8HJ/58vLodcb0VpTQGnUBJ4VPMbBNrbPlxU0ZaavMPkQVk6yQXRSRcfY11SfwuWaYs7Gh/v34z4KVLYOTteZrS2Z8/0LFmHvx3%2bH4WoFrhaFY%2bRiEvpLgjHUfgyZuSWYYy3GjPHA2bus32e2bOHjtF%2buRnvlSbDdYV4jiFWfQdxQUe%2bRC5725vLb2bHJUe7WvMsKGwKuVy5Zuxuz0Vj6JS7lHcEwMbr%2byd9RZJ7P2ecBi8SW2GSR2zMoGO2aLlyr3I6hc%2bEYKk/AcFkUes%2bt4xlg7YYnKKgtGAt2krDI7x8eAW3XNTReLEBlzqfoacyRiiNWMPHFjrG/hZ8BXNQ0nv2ePP9bS3FUH8svX9H0W7DDBOmAYVTStLhwoVK0tfwYTu7wRVvF5zyKP7ttO%2bbbLsGsRYspiFlycfcPQGl5Pfra1MR6KEbK4zFUFodhUsBAaSh6aj9Cc2svopKS6T1L03uzrayR/NtH6W/duEbKT9vljZqsfehpzhOrwwk2Oik7zZNrfe2t1vnUibxVtYg6HRF3T8Y2LUzgL5DZvhWG9gx/6Kr2YIiqsqJzFdi9dz9e3vE2/vbFUWK8FwM6MsuieNSeCkbl8RBUpopt1YkQdOSFoe/KIfRcHcDh45n40653sPPPe5GRU4x%2bKqK6Gg5DV7AaOW97ojbnr%2bhpylWUxuIuD3NJMRtlJdyW3zeBp7gZUieJzJ%2bkAwizbSqmkI6K4zj%2bp1ACH4HBc2FoK1iH7voDGOo6j5HeagzqCqC9uAMNx4PQcDQERZ/4I3efDwo/90fefl/k7/NF3eFQNBzzQ1vJZgxoMjHcW4XhnovobU5BW9HT6C0KofgQjROveKGh4DNytxyzRZK8xhddUzzcIHeY0SQtd296r06xJ7%2bNHUYo/d1sd4bkxOuROP%2bJL4TqZPLnNbhaGAhtXii0%2bZFoOe1PjDkh5Xl3fLHRFV8964ZDm0m2uPL2603svguObHVHxg5n1B/1JpYjoMkNQ8%2bZQAyejaR%2bk9CYGoYjz3ug5fzXZAnZ1%2b0LiPme7yKLm5vVKdNuaXODLQvHStrMj6RzM4N8kqJccnY35SF7zzqkvuCInsIYGCsTyJ8pmJFf6y/GIfcdP3y50Q0ZO71RsMcHubvtceZ9V1QcDEDxBx6kGDvkv%2beJrLd98DUp4%2bSrXugriaF343k/%2bovUX3kc1Ls8cPzVUF5fTLArJCg2OIo1DSUzbnl5aw5e/YkMfrzZ62rSKfjk0wrtNXz1Rzuo36LFSs4aGCriIdQkoC0jkph2QfGH/qSMGKD2EapN/0EJq4FER0J1/cApoPn3MFbEourLEFKUC29Rk8j7uVocjcK/%2bPP%2bCz5%2bgkx%2bvL%2bPge8XwZ/V1Bd979bBi4sZ2ezfkNKc4brdWcY8%2bV9zyT9wbLsnma4rjr3ojnOfBKAtPRJ57/ri6DY3sohoGC7GYM/LPnjj1U14e%2bdzeOv1TfifHVuwa8c2vPVCBJl6OAyXEpC%2bwxNpr3miJS2CrCOYLMGDu8SRLY6oSPszVzZT%2bkRbW9Lu0mk27%2b7yfbd2lKVpOm/aFCTwa%2bVd2uuYNykgF7kfPkYTtMexFzxwmPz5yHPMt12R8aYXUJeEtI88YW/zUzjZ/BBO1j%2bAo7XYutj8AEsX/hh7X1wFNCWj%2bCN/igMuOPq8G%2b%2bHxYqU551xakc4NFVp150FTBDwPpK2tGdob/UMX5HqlvL8PnZqKpjv0orsNxV9jpRtHgTeDanEPrMABoAxZ7wUj62PWsJtxa/g634PXF1/BS%2b3u%2bEmtT4OdyMp9AEMlsWi4H1fDpr38YI7tZ44vNkeF4/vMrGuM98GF6TjcKO0sbH2tlIdWxXJRU5bWxv7RuZCv1jkGMdtKIqal3z/3Ncv4dCmVXzCbOIppIgUUkDRfj/Eh86Cg93PsdZtDra42OK3TvPxR2drPO66EG6Ov4S/%2b91Qf%2biNtFc8udJEJTLgdsjeu47K2WyzTU4l60ykOmSQ5n2/vLjR3urqjp1/Ua6Ua/un2CYGO3s3OzlVTkbac8vb97hJASmkgGPbRAtYG/Ygdrs4wBi4AZfXxiHtdz6oWL8aQugGHHX3R6zfTBzY5ERZg5S2TWScuVHazki0X0rlBdUEhx%2bCeZpTfy4va9m3Qre5sMmRNjL4qq5d2jAcnZB9Dl7NNxzz9z9JCrAj1lkApBRFcoiuix4PRtHvg/Hldmcc3e6KL19yRtYzfijfEM5N/fh2d/48sxqmwNO7otBSdlgsaqQgN97c5fO7nka2rM1ertxpvq2FjfI0hDpcJ1d68tHRhAqglooQoTzldaS%2b7CeQvwpHn3MTGKDDL7kKJJxdZhGpzCpICYdecmE%2bLjDGD292FI485yIUfPIUOipPCgRcmAC48txebxQD3V/kfTwN3367zeMrdgjA9sN6Lh2Ql7ipUhWlVx4fKZa5ozq27CUFUQzQt5Qd1Zd%2bsdmY9gbzf3fhyFY34cgWN0pdbiCFcOH/Jzn6vLuQSkrI/eDh0bq8T/XdTbl68mMDATdK/Zp90yOnN2nB1aRtyP%2bJvIc3RR8i5JhH/vq8u9imhnRGp1d8PCTwL6ro/oD0RZVBU0gFzSWMtGei7lSIcOlwMIo/pXp%2bjy/Ub3sjY5cXMt7yQs67VOfv80PZF8GoSvEevVr3GdBXC6O2kPfDPka6djkX7HBSsjiDTvzuxzSu4tRm%2bm0tZyeq9qSOpZIx2/Nqcy6fFMurLBBKkbafAmSLtjazoKM642BbZdo7mpqcZ7sufbCtp2gN2nIihSvZEUKzOhz1p8NQlxbG28bMcFzOjkBrzmrjEK3vu8u3f6CpLXqivfLUburnM21Nppr6baD%2br7J4w9LZKK012Pp9tLOUpbY/SFY6QzxnmMKPlNg3tFQwqMyPhPjHheWs%2biN5uK0qw72i5MSs2gs53xv//mi66t%2bESrZxESv0n40Reoui0VUYha4zUbztKYpCX2kM1fGxerSshf58gMf4PoDhaWVnUu9uqUh30Naq42jMF2j8PGr382qu8qDpCF3%2b5ncKv8MRzaij%2baJKW3nkG58Ni0%2b%2byyk4xnO5T/gbJ/%2besB7Vic%2bMXIhj4ITh8jiBXY8Xus/EiNoktqB5rznnoTifyIg3l3itXhOe8NC9a9bYTfu2clzKTnfo4wTpyIpWI6q97%2b%2bctspvjamCikxaa%2bsREf%2bKU3BsPsk1a8/VcA1bg/6yJL5AGSqLEwg8vkmYApiCRisSaN2ThOT1UZjnHAmnoBg99XnePSzu3aDYZA8anyvCP2atxR%2befWY6pDV7S2UmFWdFUw88OCZRtdI/ml%2b7hsaaWPCPSrBzDok95hAYA8eQRDgGJ2C5z2oscg0ZXeIRaKhPjzKiKn607ywHR8zHCuZg45TgBVbe9p%2bLHUV9vHHdo%2bGGB%2byCjct8IuAQHC/1HwdSRLFXZHy4PAeHoBiJBDeVc1C0yt4vauqAOwRGq2y9xA4dpYGefGr9D4mJ9xyCYmliCVjlHy3YBcQYVvpFGa3cQwUbzzBh1jIvISrSgQDFC6iJx8C5WIHJ4HmZbRE4AzxwnoMml4ilxU2ScGB3gDBvhZtg5REmLHYLEZb7rjGy/mmcUfsgpogEuITEnghPSJ5prgCVyi5gisB7RsSrXELj%2bDUNxqNpcFziA6T9cqfQJBNoO7GFrWc4nyybtKWjN345cwFCgu1w9shqoJrMuY6kUtzkICsAA2u8FAemHNQlorckDjuf98V9cxdh9lInWHuGg/VnTf1JY5FEG%2bnawCyBLK6HSPBi86I5mRQQEP3Q7QF/7MlHVD6rE2TgvGP7gOgF9oExOontETYZasFaYocBZ5MFgcdCB2/MsbTGXbMWYtYCK6xLdsFX7wfhYupq6M4wthNwtTQeTZlRyDkQhje2esPReRl%2bfj89P98SC1a68n6spD6XekcKivGY6O0C42AfGEvX0aGilYoWsMA1XPXYE%2btvHbx3pAicNMs7JD97kAbUMbPjA9MEZDbYhIgdKMEvIvCzLW0x18qWg/8FgWLA5ltZY6X9Eji5LIOD01LYLLfFr%2bcsxs/uXYB75lhi7mIbes/GBN7Up3soVvhFQRpPkBTA3IErgOYZIBE0XXTR2FsDHpn0MG8DYxJ5qbh584bvU2fljHElcHkSS7wiYClNcDz4OYuXcJlHSmDAZpIiGNi7Z1viHpL75i3Gg4usxb9bic/OXsTAu5nAy/1SLIE0NswUQOCJ9QH/qMS5YlCO40E5IvHhWwGfxFtbLzGduYXGvS35%2bIgSuGyCK3zXEPOhCpYIvKMvBz/bksBICmAyl4mVucxZbC4c/Cr365hfRplEAZ6Zu6wAPSPGOTjWtG8VGp%2bsWugadnPAP/tgC/37X8zMufZ81ySsYFFdYeJS4IkxTcReYp9PUgJv6eQngRfZl6%2b/TWTwC%2b08zcDLrMtjStemudA9vVNoIjzC4x5RBsDt2/84efDLvKNUL77whOreFaHTpGB3WDJ3g2JAhfZF5mXTlFmydAk0gR7fTgh4HPhFDj7XmT1j3iEojotCCTIho/YUAJ2CYuv%2bsPGxH7G5B8UmqWw8IycPHoP7WZTnwINiEheRL1F%2bjRkfaMzA24opacznWesahDlWy8z8frLC3llElmMC7zbm89bMpVyCQdnFTAHStYHVAB7h8XHKLDXp3wrfKNUKPzFiUgTd6kimxExKyfp48IyR68BTO9dmJY/cNwt8zuKlsHQO4O5jsiTXYCxwCsSml9/EXz45AK81a5UKEFaJczM4EHgyeX5qc9/KEAsKgpMHn7z%2bEdW/LwqwkPwm10FMbUYl6%2bN9j6e6ccBZO2%2bpPTdhpdlPCrz1cm45rA9ZWDZ57%2bO/obW1Fc3Nl/H3r47CLTwJK8X0h7FYFEupL6Y7IDrpP0UC4ye/uUEmbyH5yy8pkGnteBERM6pkfTxwO2XAM6W7cMxf7kzgrW%2bSeRvMtV1ppkTGOrOu5Cc2ITT5v%2bEe8RAtnJJ4fh8f/JgS2H0yfSdl2pvUj0ydP0yrtBWkQUHpUxMxrwx648GzdCUzP2nw9Pz8ZY7XBTuq8GBDfS71iuRjMcbHEyCBNzK/dwuLW8f9PjRu%2bs2A5w%2bT5gKdw3huN3wbeHlwG1OAkgsdn5sz9wkKHFkBPKUGxkrlbMxEaU8Gr3cOS2bgX5aYnzFp8GTqUh0fEyoVNvqJgE8E3hT4TOku4Kb8fSzNeZvV9cylJhrvBnPSOxF4mv9rEo7Jg6eXp0ttiCOBZ9XTRMFuItOnNf%2b4iB9MEX/FTbNv6exvivRMVpintW8CzubJwdP1axKOyYO3k5inNkTBvDBZ9sdXevOWOkza7/lCiEV6UpqpnicLUPr2tyhAkJm3k5i3uwHz/wtUGgXA3tKwkQAAAABJRU5ErkJggg==' /%3e%3c/svg%3e"},"path":"/author/john-doe/"}]}}]}}},"context":{}}