{"hash":"0738c800e3749017fe7d41f2a4d451c44b1492e8","data":{"entries":{"totalCount":13,"pageInfo":{"totalPages":3,"currentPage":3},"edges":[{"node":{"title":"Tokyo Revengers","excerpt":"อนิเมะน้องใหม่ล่าสุดก่อนเลย โตเกียว รีเวนเจอร์ส เป็นอนิเมะแนวการย้อนเวลา กลับไปยังชีวิตวันรุ่นในโรงเรียนของ \"ทาเคมิจิ\"  พระเอกจะต้องย้อนเวลากลับไปไปเป็นเด็กมัธยม ซึ่งค่อนข้างที่จะมีความเป็นนักเลง","image":{"type":"image","mimeType":"image/png","src":"/6110110193_240-420_Gridsome/assets/static/1.4250cd3.42c4412d4d2c4cf91c062a04615d7a12.png","size":{"width":800,"height":879},"sizes":"(max-width: 800px) 100vw, 800px","srcset":["/6110110193_240-420_Gridsome/assets/static/1.1b91758.42c4412d4d2c4cf91c062a04615d7a12.png 480w","/6110110193_240-420_Gridsome/assets/static/1.4250cd3.42c4412d4d2c4cf91c062a04615d7a12.png 800w"],"dataUri":"data:image/svg+xml,%3csvg fill='none' viewBox='0 0 800 879' xmlns='http://www.w3.org/2000/svg' xmlns:xlink='http://www.w3.org/1999/xlink'%3e%3cdefs%3e%3cfilter id='__svg-blur-a05e4f302cb0696dc7c900b763c764cb'%3e%3cfeGaussianBlur in='SourceGraphic' stdDeviation='40'/%3e%3c/filter%3e%3c/defs%3e%3cimage x='0' y='0' filter='url(%23__svg-blur-a05e4f302cb0696dc7c900b763c764cb)' width='800' height='879' xlink:href='data:image/png%3bbase64%2ciVBORw0KGgoAAAANSUhEUgAAAEAAAABGCAYAAAB8MJLDAAAACXBIWXMAAAsSAAALEgHS3X78AAAfoUlEQVR42u17B1hU17b/mRl7iQI2%2blCm9xmGAYYOAopYsGDBWBJLYjc30RgTo8bYsLdoFMUSBXtBVOwSO9HYSyyxJcYYS4xRZubs/1p79pC5/Ln3JmLe9973Ht%2b3PWdO23uv/Vu/1bYc939///f3t/0t/bwrR8gler5%2bztuC9QuGCfB8z9J%2b3Bv16//vEcS5PXPLz/flf0qFcKJ4zf%2bOyT%2b8VEiPOcMjfWeObutLEbB6LL02M2dype/Ur1eP2756Ij1ftfBTbnt%2bDj0/VjT9f9bkD62dRFd737p5dUoKxt8r3b7g0lNCquG1w8UbuDvH13IqpfL/e69oWV96nPBBFvfN1iHCkvw%2bwqSIVvTaimlv/c%2bYfHBwCHd8ey4VQN7sMQEndywjlw6tJYVfzUnFa7mzPqWC0Gq0lb4/oKv4v89k4mNjuOs7vqDnp9ZN507mT%2bP2r5hEf5Nji7iRg/95Vfx9GtPj0N6ZAte1b4sW5V/cv6psx6oZm8jj043w2pgRw4SV9bdqekr5%2bf41fTJ2r3yrDe2LEG78u7r/2skLBQLu6zynzu7Jm8Td3zxWCOPgyL7Jwm83zKQTvLBlNjd13IjydxKjpFzTZoH0PFyvrlurgU94WqxpweYvPiKd2qUTjVq7wsPb6IX35UpduZBkUilnNBi50qLZVDC71kyS3DqaS87v%2bcK2PX8hhcSp3SsESoWSWpEIi4W%2bFx0VwVng3BLu/B0WZuaiIiNejwDM2hB6/GrBpErvn9o4hx6v7ln1T9fVKoUIj6DjWWq1hiREmcg7XVvxQSESW8tEFUmLk36C9/Uaqcj1Dk4e/zbmzaLXSveuTf/%2bZBG5/PUm/lzJxnC8VrxuIb0XGxPNSUKl9HmT0SRs0tRHYDSGCRMT4um1pISE14eC3Mnvl59fWT9xyIOinG8ub5o6d9kXU%2bvRlVo%2btfw%2brky0OYhTKNR0oAatbFZshIoYdeoXRq2Ml0rljt4dZOT9Hn6t8X6vdsF0tSMsdH6cRBFV/q1B/boaz%2b9b9aK0KPdpckIUvfHs1mkuMdbiPjxBxfGmt0h9fZM3KMXcjfVj6WTOrvq4%2b2/FU8iTzWOI4%2bBMcnXDlGF4/XlxjuiLnDF/oMao5jybOaGt1Si3a7U6gL3GrlHJ7VKJhMRGyC9uXNitOt7PbGlyOk2feHOeflbnB%2bp1rG7QG2cCkT6e%2bNFgsnr2aEeAOJTo9aYZeDsgUCJMTEzkGjX1o33U9WgWJpEpd4FK5GR36VQDr6U2T%2bbaZrSsugCG9kzjzi0aTAXwzbx3e1/IHUYOzh3627llH5ADswePxOvXF70jmj5%2bRDkC9BoJHZhJGxyikCseoArodRqHRqO1aUAYcoUml943KETufbVIUNLf6YnKbHOYkeg0KhJuNvJvdu3iCDcqicWkeqjSRlPuAB13EahwWL/sc327dyQ6nYFEW60U%2b2ZzuGjm2KFVm7yHhwcnV6g4cnsMFznwA9ph0fRBebeObyKHNy1c73puy7SB9Fi8cy89RoQbqYkLM2iGqZQqIpcry3RaNa/T6eyIBoNe1w3vS6VK4btdJPSdwdkyLs4ipn30bBu80qjXEJNe%2bdIME5fL5XyYQW3XaVVEozFYnMjSuYTnu2DyqF%2bL18wuCw6RwrcNA2jfJucYgoKCq44CvyClS89qmw2qDfkzR5CMlPhdDZqIW%2bDFpgESTql02vNJOV9ycdERtHMfH59ekREWEh5msqlVSodWayAWS8QPJlMYXUVgboE1KpK%2bN7yHk9DIHXHNjGTZRYlETpRKNaBGB4LT8jqtzq5SaYjBYOjPSLaGy3i0bpFsO7hutkMG6gVCPgbmkqpXz24dqjZxk8qTa%2bavppP3aiYLUipVV2VyFclITXzZLr056LXiDt77cFwBJwkRc3PmLfvD/z/7nXzKhHGdk2KjXnZq35b07p5lz8psSbp0yPhJKlP64DMx0dHlBDawSxA9XzLaz79lfOjzoGA50Wq1vFar5wExvNGgtyF6FAql0x8WeYuW5bSvFmbUfdHUR0xaJVr5zm1b2NYvmkByRvf/B7Vcc8YJq7j2TbiOLWV0NTOSQodHhhuIyaD5XauWO7QaNYkMU1416jRU2lEWE3fzuxu0wz07dw04f/YKuXzxRtmQIcNtQcEhxAiTiIlQ2yLDQQUMRrqKOp1eVKOGcyHf7ewUwIoxjRt0bCG9J5Mj9BUOhVLNKxVyXqtR2dQaIFONdo5rdMN7KjWtk6XEpAslMZZQPtyk52MjjUSl0hJxiIqyq0yufXUhDM9uwiXHyKiudW8tHm/Uq4haJbcZ9QhNLVGrtT8D8/rT1bRaBQ%2bvHqWdndi3ZfnNM4fImdJv7MvzvqI6TC2BVm8DJidGo%2blzCmO1Rti%2bXVsn2fZAD88phBYJiq2gw6RTZmtbUmI8aZmaTFqnp9q6ZbUjcqlkFPUVxgu4eo3D6vdoI77yTpaYRIXDoqiCgTilZVaLlrSIC%2bqEz6XFSUSvLIC%2bHcH5qhFPB9UyQb4R4EekMoUN2NZh0GmB2XU/xsbEUL83JTlRcOfUdiqAy8eLlv/6/Qly8sC2Fx0y2/PBwaGwKkiCKAADMHt4ASUyrd5tdT7ioi3O1dLrzVaTQVcGQiXNE%2bP4Tu3b8e3S40i8Vecw6VQ0eoq1yCnyYiyyOSa9gvgHBJchSYLdsaXGK8h73X3ewfsf9PR7dQF0b0WjV%2b7ruVzd5jHSxxKp%2bmuZTHYXWJ1IpVKKArM5srnT/bQIn906QSdw5eTOLvfP738x6/NRv8hk8hdgCkloqBRRYAchkLCwsFP43NgPOguWzX1fmDvzXadLa40p79toNJ5WgfkEgdtDQiQO%2bA4i7keN1tiECk9npLqjUhtGKxSITEWZTm/gg4JlfHyUgozp50u9t/d6BL66AHpkNHUyM/j%2b2Rniw0YDQCs15beU5ASSnBhf1ikznWRntaY2sG%2bP9iKFylhOapFmwwE0gcDidhAUHwIoAFZHHQam1j%2bIj7X6u54lxRy3e%2btcDp6l70dGRDYCpDxEYcHRIZcpqACAO67HxUY3dKmPEy2GtRqNhui0mjJAGQkUS65bzdJfBnX1p9Fbv45VEAAVQpsA2tFbmT4hYXr51bhoK7FGRTiaJ8bbUhLCSaw17EMa9IQ57bKonryeVKpYolGriVandwB783pQF7DHT8Gz%2bxHVCDiAhIQqY8FcCfPzZpUnBJISE4VOJydKjarChMUH%2bAfaUQCAoNKFsyYJ1i8axQ3p3532Zwk3F0RFmAEdGhuE1gRQ%2bkvn9BDb6Le9aQQ5spfvq5PgW22b0WNytIzqm1aFgY2awlIilZWp1Tp0T3s4BaClkLRaFB9GRZjoysdGqvjkGKUD7bckVHIrMFB8UCKREoRsSnL8oku7B%2bw8W9iDlOT3/AzfnTwiuRozj2ZcfRQARI4OEIANBQC/V7q8P/wnJMi/JoTqp3u/2QUIs6WjS/sWthhrFLEYxDudj43iPuzZ8NVXPzu9GdciNgBMiYZKG3R/JK4MOCNlAGe7kwPMaXivY7qSCqBdcuDSlDglEQerbAlWOWmXInH4%2bocQHx/fu4CClSgAcZCU9OycmH92%2b7DfLhV%2bQI6tH3qmYI0cJm9ggVFEb%2bwHJl0WEhJKQAAOMInYL/UB%2bg94vy6gp3ZEZFyMSq0F1VLyFpPCEW5SgDUw/qqUKqhX1TwqSFhlL1AqgRjdaKICgAnPRPgCFMtgQDyuil6njy5/WCT1SYsN/CnBqiIhEo0jNU7FR4TJSXbXzmRAv15FnKC6X0hw8K2QUBn//sCuB48VfkGOFq4khzYveDHr0zYBrs9AP/2A%2bIhEIiNicdADQI5dKpV959E4wOdIUW7oiaJ5V698veTRwqn/uARocmCsAV6mQ6c3gtAUtxt5edJlb9gomPuwV%2bOqCQC8Py7cEiFgA8sHIkIyK0PTBqv5GzD6H0k9kSqoQ2rgk%2bZxWtB/g71tcwnx8PTctntbwYHjB4oO4yOfffxe4ub8pWRl7ry0m8c2l9huHiLnDhQsxnvTx42kgm6TkR7cvk0ru8loOA99qJZ/Oet27oIZ1Ls7ve%2brvJe3ism3xQvItSNLCZApLxYH83q93oGoAZTe8fXx9cRnQ0NDBVVOvwPDclZmnkAAu1EAsPplsDII0e/BKtQrd521QW0yU0MJuMsOk1bMJ0eHkkXzZpWUlux8MWPyuG9pbmHOeL%2bj%2b7bZXvz%2bPHRQ76zJu7%2baQbp1bJ3l3ifAu8ahXRt%2bPbx7Q2fqHs/PuX3m2N4bd66dVxQXTMt7%2bN1%2bcu7gavu10m2O5kkJfECAGKyAzoG8AZbgftOmzSh5BQQECqqsAmqVmh49PTyE0MG32AmYJRswOgrgbsf2mR6EOHN/2RmBU9qmQhRnstiiLGY%2bOiqK9MruhMkQgtE0PtO5Xar/kvnTf%2bvV481TYWHhT1qmJpHISOvD%2bLi4T9JSU6jd3bohv1nJ7q0vizZ9lY6/q1UTFWZ1aEO6ZWUWLJ4xauihwtyym6XryYXD63lzWBhBnoDFoaoA7a6nZyOac/T3D6i6AGC1Bc7QVRYCH3%2bGxAcdlvn4%2bGFnRzBR6fQE0%2bsYtIrLEI2RpPgYOw4M0PMUbqHXRwQCwUansxMVHx0dQ2JiYklsbByJiY5x4DExMQnPT1NXumSvf%2bGGlUStlB2lKR%2bBYDl%2bAzPtfXt3/ebM7qXk/N6FjkUzx4LjE8qDaeVhLNRXAJW55%2b3tQwUAKK26AGCyTkEolLXAlJ318fUnCXGxD4YO6PPcZAqPcUL20RswKUukJQyJi1epcEBqJMsnb7xRP5cJ4CRa0pCQkNNWazSB520gBD4%2bNpbAb0dUlNUeGRkF16MN%2bM3GjbzWsknvw/qKQCB8qZAG8XKZjKxcMIGfO%2b5d4usvRhTyMqnMgSogDgwigMwbsPL1mApUPRfQMzuLO7xnEyWnZQtnfDF29Pu3Jo8d%2bdmRvVse37hw3HSi6MvC746suV%2byddFZGIQNHR3gCR7Ikw5OJBLZ4NWnIIDHcPxeAjE7eHo8CIA2mLzraLdYIsDJsrpy7BOYAH4XCgXPgoKCysC3wHAYQ2Qy/eNBxBph5sVBoSRIHIy8ZEcTCy73PZh4Q5YMqToCFs%2bfxj24dYEKoGT35pXXzh9f26FNi74Tx44kx3bkPbt/eiu5sHcpuXlkFRk74l0IRmTAyAYeVAazMzyEuz/Cqz9Auw/tJ4Dq8/BwCyKAp2oQQ9UBhVCGCIiIiBxHDYpI%2bCVOHoXWzNv/KUaRgCrnt2UKiPo0vNVihFA45Oe2rdJuWyMtxM8vgAAadtOIMiUJOOA1IGD7hhUc%2bf0xleTXe7YeunruOA5sahOvBmTXikn8tdJie%2bnOXMeV/UsdRSsm82FU93VUADBZvm7dujcxPsLMOaDgMjgtz81hZtek4RhDhQE8YEMEgDnLY11/KBBQoZ2PC/d5lBCtI3KlDtxqNQE/gzfqFQ6MASQh4is7Nq/%2beM2yeSR3fg6ZP3NiX2Y5qhYDvFHPad22FCwtv1a4Lu/ihDEjH8LpE4C2Y/74gfZH146ASVrPH1s3mRzL/5xkZqTyYAapABCuDRo0OI91TeQ2EMAJJFKzOZwKABvyAZAfAQ4ow%2bsghC%2bdCBBZQQBgOgVHs1s2eZKRrCJSuZaXy2UkzKDiaY5RqyFKhfLZ5rUrL6xeOofs3LyaHN23hZaV9hYWiMCBei2VIZce1W/apNE9j4YNUC%2bf1ahV53nXNkn8gdWTyO3SQv7E%2bqn8iskDeQyWwBvjgYyQnUmjRo2OwPPb4DM70MIpFIofDAYT5QGEfFxMNA%2bwB%2bSYKQkmJiT0wc4aeXk0gMNKoZArbpfk/chs0kMAJeVBz3nkAjR56AJj4qRtq1RiNhlsR/YVknUrF9EgaNu6vKohwKdZ038qPIAYMAX%2bzKXLXl5ez6QyFZk9bij/%2bPIefsrHg4GhpWiOaPLDz88fTRIJCAhA9l8iFAoxkFkcJA48EhsTDbY/ige3mjeawkhklBXUIZqkJic%2bi4mJc1fc/o09RNvebBv8GwoTyM6B5EqzSxpEA4TIOs1LeO5nL0/Pl%2btWLSZpzRPoZoS929e%2behxQo3p1zj3qwnIftAewijexYSkAHKNnAwcOIzcuX%2bRvXj5LunZ9kzTz9qODg/iABwb%2bHSAIxOSPCJgK7%2bHApsFAV8MqI9Qp%2bzdPTkFVsCMhpiQnllSo9miM8ppbs9vIiJ9/yAMfH5/TWFdAm4%2bCDoZ4QSoJ5b29mz2HZx9Xr14Nze32CmOvmgaw4zRo32G5Dt1xbLJQ8bP9ew%2bSH%2b/9xF%2b/dpfP6tieV8nFgAAtND2Ys6gNn4/54GF6WnN0hEZVq1YNQ97RjRs1nhUfnwBRZDhFAEOCHdQAyfBQhf6rJVsarHi7fQjxD5A%2b8vPzO2bQ6wFpcuAXBR8RbuYhZiCenp5P4Nm7iARMSKMF/Fdls1f5Q13cwBwSNDG7atSofrx5UjK5eukGefTwMX/hzHW%2bVctWRK8KwNofHxelIpPHvndnW8ESe9/e2Zgr7w/mcDiW%2b2AS3YDxHUh%2bCGN0qQHeDhRAbGzsTaNeX9tN/gjFHn0yva%2bmJ2EeQvmwV/fOL/v07EpapCTyb/fM5jNbxZNAv8a/YJEaVv8cU9HBrvDsL88W2Lfi6mPxYxMSEnSAG3uW1atb59iQQcPIne9/5O/evs/v23WS79WjH9hgCSYlSbeMYL5nhzDyTp/epGO7dExNdQSh9cZQIDg4eDjCHeGPDlNoqAR5g4%2bMiELX2AYWQfqHJRKhQ5Pt31TYv0Nq0G1MxKpUKvoeqoA4KIQHFQDSlf6GbjJuJ4CGnDPuddVG34A2BdoCaJiPnwdtFujc5VnTFpDr391xXLl4g99fXEo%2b%2bWgCCZVIYEJSys4dU/1I3docDqx/NZEwDUiwHWa94N5C9P1BAA7gC3Cb1RjF8WAGqWMUHxff0rUZAv7qiESCDOci1O0daw2/B%2bEvZpQwIYtZZlQ55JkH8AwuTj5rWLbr7K4GNWvW/PMbItx0Jxn3N2ECF9p4JtnPgOQebFq/g%2bDkd27fR0qPXyArlhYQMGXI/OAHKB0p8Wpi0TW7gFmyGtVFsYAsLNwbQN%2bXowDQ9cUkKQYwaDWAC%2bxxcfEQFCW%2bxfKCND0GgsNw1Orv690evMBfkWRRcIgaODrQ34DwF30NrBzPdVsoRJ73X%2bYC6ND9BVw1LPsOBfi/B8d3vJs1WREXYyWXLlyl8L95/RZ/qvQcv2fnEb55UiovkUoxICoDc%2bUY9mbQS73CA1cwuG6dGlipCYi2WtcwFcBCqR3c1cs4KbAKZQkJiSQpMZHmB%2bNi46gA6tSug8mNEI1aPdwEJhPfwYgU34E%2bbBgKg7VZhIlpGDbGD1inx80XWHwJf1UyLDdD0N6G9iaWCcCr6%2bfr6/dzp45Z5NbNe47SE2fIqdJvcfLkxrUfyFfzJ/FR4UYSFBzye/36DW5HmLXk435B38bohEowruiW1YeVXYixADT061%2bCuWwJE7qHk2NeId0fFx8fTwXQrJk35hobWsItMzDjA7BHwVH4Q/RHBQBE%2bhEuFiwS7lfAIgMWRbA2nl5VAaBTkgkfxt0czcEOj4JYm7Rtk8nfu3OfRxIsPX6eHNhziF%2b5dDG/YelMXhIcbMdozdvbe4uff9CW1AQNiTQFD2OMXM1kMnVDAnOW1jQ7aHFDpT7NoE0gTohj22UoFEEoQmetIGI9ZqMQASgAbH6%2b/nYUAKgBltv1MM7uSLisYZYpE0FUpYQQVqHgwxj3m8He9oAObd7evmTwoCH8rqIDfM7EHHBF43mlQkqTpJ6ejWhIDCu6ydfXRy2RKoleqynf4ZgQHx%2bqVqlR73%2bFCQU7S2S6TzHTBOH0mZzJE6o79wDFcCajwfmO1SQE5JQiAlAAqP/YfLx9qRmFb2F1qhqME/fGJDDHDY8pbBErs3L/8Q/tsQob8IKG5hcCAj/FbC3qN%2bgdnXBAgB/vC2Eo7s7AZAg8Q5tapSFpaana0BCxBshO5vpoq5YtPBVKzVOFUjXPdW3EwJ4ihVJ9Ea4fcF0LN5u5tq1bUyQOfKefJ6jMLYYShyvXAAjAsWAzM/5CE6pnqosNK64ydxX4I7T5cyYQy1dYIPSBj4sBatdpLlAqt%2bNq4DnYcVq9oblCuZJaAdBrG2ZnQG/LNw61a9OaQnnkyBH1s9qkPk5PjsmkAkmOofapRWL0lA4ZKWdoQSZewllMGq5lWhp9p3WrVhZAlJ0VSzDS5AGJ9sAAMfaX5za5Om5j9mNH/F3rVeCPUHwD7KcHJYNAcVeEdkCA2A4CwIiMRnsoAAZNqte4IqEhEjo4GOiZCePH0ILJhoL1FHtfLlw8Zfe2QrJiSW53GrWtLaCQX7102ZQdm7eQuXPnd8XfO7fvFMlkMqGzUGqai5OH/mxo9qBPB1gPXICffHx867PxuRw3nCxeq8dafXcB/CkEMF8A9UXo5elFBwiSXocT9vcLoINQ0sKnluBEsSiJA9Q6AxVcHVQDsNFyotVoy/es7dtzsPf%2bPSWkd6%2b%2bpEbNWqOpo5GcRtm%2bceOmBWM%2b%2bYyUHDj6/OTxUrol7sORH1V37vcJG4PfxrQXTNrmDyrWp2cXvnOHNvTbb3ZpL9y1ZADXsKEHV7t2ba569eoCbBB/CKpDwyMz73%2bJAzAjzLHkYhOY9M9YnvIF5oUVsGFlCFceixJSicylBjwKBZ61%2b/r4vcDnIXBZ4fpeSvPUJYkJyYTl%2bv7hhjS6o6VWrVoks117kpyUTDdRgr9Q08kH4VOhHxIAZg%2brRRnpaWTZgim3XN9ds3S24C/4OH/%2bDyYqYpnhdjgZIB4bCAA5AOFIJ41EiINjlVzq1eGzmJ9D9YD7T/39A0LYJ7PY5DFszXOuPC1d1WaBjEs47V3RoAu52V2yziTFxyAK8rasXX69aN1isnb5/BHgMtMxzslxuv8imCSuMm14zn7XrVvX%2bcH/hABMhQF8UKewLCZkgphKd4dIZUhu90EdcmBiN3HScHRg9gfJD20zXoPzmcDQ64EMX1JOCJWgo8LBN%2bqJhKKrbhNtwbrNZL9tcP9xnTp1/OjuNF9fgavucPbEweNfF28gsyePDszu3PH0mJFDyJbVC8mKxbN2uMY%2b%2bbNPXt8OUawHgD4LmP5vQQHgZGCyXZh6/I66D78d8KwjOCjEDhOm1iEsLKwnE9xqfAbeP8k%2bi3vpMD3%2bnE34ILs%2bif3%2bFZrdJRjwPEUuAZTs3naxpHgzogQhcw%2bfb9zIizRtQkNhGkJ7NGzw%2bgQAg%2bd0OufWdJjAFYQ1HCd5eHrViIuNra3X6wtlMgUJFAc7MPWFJAWRYJmzUqubyN5Lkclc6mLQMreaMCE8YecYJhex81/YcTUjLEDAC4rCYwd2fHto1wZMrjaC64/dUNTvdWaAyv/cM6ogjDmwytEVnxk5fMDRIe%2b%2bRaIiI7I1ak1BtDWSGA36p2azWeOGpGhEAISwg5DY2aB/wmoPtEfs/L7buY1FcvhfZ4SAAIrCo/uLSkuKN/1cv16d1YxDyqC9qFmzRtDfIgDXn3uFFVSAMkjR5jXUtp87uX/%2bgZ0bYIykzuxpE%2bqvzp3j2LYu75TL82rTulX5oAryN4rYamG98A4rltxjxx/Z%2bW1oL1C2jLBENy44N17t3JK/%2bcjeLaRhg/qoIs9h8s%2bYMFdwf9efn5%2bfMyDQaAWAAjqQMydLygVysHjLruItq/kFMz%2bXOAe55gxA9VT5HuL1BYgeoZeXl4t641nuDvOL1zC5yo6u8ysMGa79%2bSIN%2b38HPs2afqyQSQi7/4S1R0wIfd1R8Ffc3X/518iLFlgxHC0XxKMfrrvq97Wunj228Ltzx8i40e8/6JTZiupL8ba1a/bv3PjzR6NGUVLamJ8ncJa3q4nc2B4ni3sFzlbS8DpmnSe6RaWud8eyUtkPTFV%2bYue/sZzla0uC/su/94cNoIPp/3bPHqty5xHcnIQDbtq0CXVHhw3qt/%2bH62fI8ZLd9D9DfHNkr6uu4ppEH5a1/RrVukLD9PlhlnVe6Oa6ithxArRfGFJQSN9Du8FU54ibz/C3/rkm0sqNhc%2bya16S0KC7ewrXkiULZlIdXrlknqjCe4PZYJH1d1XSdrLsMxJdzQrvYoxwi/V33q2dZYLo6K4Gf8v/TAVXki5njRrVMVL8HlaEsGwsxg%2bYzOSBlYGhufdYhVdUAZro/xeyTRPrKmlr2RGTmsoK3mB/hp7DFZCDvzGKXPK3LHllkgQ51GLSJ6zwGcdMmZ21uEpME0ZmM6GhC5z7b9piJqC4CgIYw4SNlZ8dFRqiB3egNP27uEDAJuMKXKSsCvOcmbCHzHzh74tgvhowvRW4DUbF7Ptslrn9V20WE0RUBQEg02%2bBtoqlwN3bKla7iPlbfQK3RMlqVii958bId5krW1TBDLl%2bYFZ4OmP4SRXaZLfziQwphgocIGXoWFhJw7oF7iMa6N7n6%2bSBBizDirn348xhucLs%2bdVKmrmS0pQvg/HH/6EhT3zG8pEVV3MAQ8lUVq90tRw2NhSep0sIYH5fy%2bTrMIjhhC9CO%2bXa8FBJO8YICYmsboUJ1GQwRoIc9h8aOkLBbqvpjqJJLO//aYX2Cbtnel084PqAF5sQ3eDASKjo37RtLMob52bKXIJox3L2fVjry1qfCg0ZP6CSidRjMMdkyvAKbRhzoTNeNxG%2bwWC3ijH4creje3O/tpQxeY47JLG2wIosXZhdr6zhvexKylquYxJThbcqCO1tJrhOr9sK1GM6OYfp2cw/0WYwth9boTARwdxhXKXW/6a1YXF/ZYhEv7wbm2iWW%2bvECqLtWSL0T/39P2mIcXgjk8RoAAAAAElFTkSuQmCC' /%3e%3c/svg%3e"},"path":"/blog/tokyo-revengers/","timeToRead":0,"category":{"id":"Digital","title":"Digital"},"author":[{"id":"author1","name":"Troes retardat","image":{"type":"image","mimeType":"image/png","src":"/6110110193_240-420_Gridsome/assets/static/author1.b8e5f13.8dd1692a41872507330a722c7ec399b8.png","size":{"width":23,"height":24},"sizes":"(max-width: 23px) 100vw, 23px","srcset":["/6110110193_240-420_Gridsome/assets/static/author1.b8e5f13.8dd1692a41872507330a722c7ec399b8.png 23w"],"dataUri":"data:image/svg+xml,%3csvg fill='none' viewBox='0 0 23 24' xmlns='http://www.w3.org/2000/svg' xmlns:xlink='http://www.w3.org/1999/xlink'%3e%3cdefs%3e%3cfilter id='__svg-blur-0fa62e1bad9998fc7ca27ac7203ead36'%3e%3cfeGaussianBlur in='SourceGraphic' stdDeviation='40'/%3e%3c/filter%3e%3c/defs%3e%3cimage x='0' y='0' filter='url(%23__svg-blur-0fa62e1bad9998fc7ca27ac7203ead36)' width='23' height='24' xlink:href='data:image/png%3bbase64%2ciVBORw0KGgoAAAANSUhEUgAAAD8AAABDCAYAAAArv91lAAAACXBIWXMAAAsSAAALEgHS3X78AAAToElEQVR42tVbB1gV17Y%2bQN59N3k3zQ6CiCUqRUluYhJrrHSwgIVexC6g2I2xRYPtHEBBzU18xuTemLwoTVE0YjS5xk4HCyoYNTHGiiinzF5vrb1nDgfkJpDCMfN9%2b5s5M7PL/69/lT2iSvUHHo6dXuJnJ/uOxntOtrZDnNpb78R2w6l9O8DzPWwHnWzbhxjfsWtvwc8d7FV/2qPXswTcQeX6lALcZp2LrTX0xOaMwJ1t2jLn9m3BxbYdv4ckZDk5dHlGEGBrofqzH2hdKxn45F52NgRYwnt6bMyZW74dw2bA%2b1pXfI7vfUjvO1u3suzRufufGHiHDqq%2bRhKsj5GFCTi3ugDNTEiQ5PMdlLu1sL6dxZ8UuD0tXvh%2b5x5/RVAlLgKcQQGstHokPMJ%2b3RXpE4HO3Xv9SUB3dEDgMuhOXVUo5/%2bSLf%2b%2b7Ot6U%2bAmBBiEMqyP9/i7u4VzuxaWSqAkEk2D5pMJ3LY9%2bbayYAvnNs9bmLhAXwRYrVi6vuUpFvBrO9twpc8rYkxLunZp%2bcyTG/1Jnmg1hQRLE0KG4/1MBPgDgtMp/l7P8spvCoY38f092M9HGQOJsXKI%2blQm1fbJAt6tWy/johTgjl2d/oIq%2bEhJbT3trKFXB2tKazy9OVq3hR7t2vBG106Y9kj29E4vO3qPp76vcdxXRfRvben4kotcNzxBCnCW5YjARXHSsePTaMHDBKKnHaYx9PPOLVtLds%2b2ZHgmsIxAvt7VFpsduNrbMAJPzzo811Lq1qaNnvpRf14I2dqECwLaWHZaUqRyafU3lVNXpychwHVSObVrIYqZ2rSWSTkbLant%2bGIr1r1dW/B/6yWWEPM6%2b0I9BE585gMVB/3h%2bpExvF05FAB5u/xgZ%2bJQeHvCq2ygsz3Yv9CKoSp0SIJQgW37scIFjHXDk5HS%2bBn9UgC3mePawQbl3FbXpVVrNj2gJxzb4cMeFQYDXAoHKA8DOBcKUmkIGEpEo2s4GyqelYfDj0fHsfffGcB6ozI6tWilKKA2BZrEFLMdPbp0V7m8YGUsRR3t7DqhlarJj1HW0q6koQAXwhicD4WagiB4kBcI1XlB8DBfbgVyk3/TM2r6Yk4Uu3TAnwUO7Q4dX2ile9nehmJAGrd%2b2xctye8pyJrP19u2VMnBiFvdxc7mAxcRtXWHtnkCVESwahnwowLRalABytm0mT6jVnUmkBTCqvODWJSPE3NA96E44Whr%2b8YTYX1efChBzs6uM0b0R7hI2Lp8IIPLEYwA1AdVH3RDJCjvkVIMpSHs3qlA8OvbRf9Sa1SUffsU4futrcyW93t0dRZWlzcuLzvYLuncojVEejvppbJQkjH7OUs3hQB0G1aUMUJ6uaMNONq0qxj4msvTSs537uZqBqtjuemIER7k3xjRz/TuYgsXckYb2Fku118FvEECzgSiksKZenYf6PB8S3izh8Pr8r7f0qnNc2YrZ7nf9XPu1KPD861qNi7oByR3WuxvAV6fAAyKDIMgu3VsnH6IqwM4tGgzVU6pT5kFuKNDV%2bNe3aFlG58%2b3TvAtcNj9OSjSvSuH%2bSa4vNG4GIcxuV/JVKnju8DLZ56UcMDrE0rK6ozzFLLO8u5/QWrF2Njx7pSetJTdCcQDP1eVxxiJOGXCKhPFPXTFolx6CxLX78nxQ0LoNaf07z%2bb9pYmCXd0SYGKzgOvvV/v7hsy%2bIBQIsjKxGA8zkj4ea3YzFYhWHeDoHq/0BCQ6DpmvohYDi3bwTcPTkedEXBDGsGwzcfewHGlyyad%2bvi3uap9G6fDDdWdbbPtVqSneomWz4INAteg/BRXWDyuG7wwbt94PbxcRyMKbj6mUB5RpUeAoXMTYMhJqQHRI7uAnOinODqYX%2bKJ/pvPvEGZ1ubdJp3wfiuFm9076i6kze9%2bYDfz5/IzwNdHKzEHSuPL9RDqagxIFB26CM3KN3jB0c%2bcYd50c6chK%2b2u2EZi2Utyri%2b9Ok3uQgRVJbtBwsmuWCflyAjdTC3/CHsW5k7mmoHXd7OEWDzt5YraNY5weLT6IOCyOa1/J28GcbrrFSvwNxtfhIrC0EgKE8EQb5KZy2C%2b1Q9AMJGdIYl03pBUZYv6LGef2hicQJ%2b/UgAJL/dG0LxvfXzX4WfjqHLXAjnhNE4%2bA7TlwQbbp8IgZ3J3onK3A8LJzTvd75bebEqXeFYnuaq80OXQHkk3DoeLdUUUmETbFKrBwoSrk6A618HwIGtw7h8Cayp3CmgkV/nfjQcSnb7oftECJ/H/iaZg2kLg%2bD%2b6QiDVDYZcKP0Bc0PUKvEZjmqCyI42/fyojvUFAVrq/PDoSJ3sqQrCuKWV4IY7dhO7fSGLcvfVHyWB7%2bGZM%2bDXGUkEhMMxaiO8v0jeX/lfSJVVxyIO74odu1ItAQV4VCVF%2bkl1hNu1WzgHxWEKFZ/BS6EYkCLMFw8MA0DVSBTwBMICnRTxncD38F2sCLWVcg9v%2bFAh/UBnNnlDYsm94T5GCfI7ylYkiJIGTQugmc3j0Yh0VO08F0Euk7IJLGe4OYrdlDeAnxeiCtcCCFrSOf3zsA9OwGqW5e/G/cyBLjbw7aEvtwFTPO%2bKQnkIrs2DoLi3b6iPsD7xz/3hCuH/LkCHuYLy//w7wns/L4ZOix4aK5oeT1mAJ8vwF89PFE6uyeG0QIFeAGKJHsLA1dhpi8HJywY9Fgj8Nz6JeKjhtENzoXxtKfIXo/grx%2bZyIoz43RQGYXB1AzgcSGy5YXsKw9OMZRkxaGlQ5kCvjaSI4izYfLv%2bi3IeM0JKKhbFtetDoORvED23VeToChjpg4uRSMxQc0veyXg3T09sSNaU1d5cDotSLp/mkrRWssrBCjVHUVrbWEgV0fd8lbcp761ylFIqf1NzysOTmFF6TMlqWwSxRCfZg94t85QqhvDra8tDllx/XAMFKTNku6eDGcK%2bFoFUCrDlFVAMSAMbhwNxVw/mqe0kt3e2Hzx90h0nWC4fyYc3wkx9qmvFEqlF/dPM1zMmY1xJjodQCm6JjVvkXM3b5oqus97/Lo4K%2b7opf1z4afjkYZay3OZkivAla8mw7m9M6BsdyyUZMWiSpCs9KmQlxYK%2bWlRUJg%2bA0oyY6EUn2PsAASIRU6kUIIpAYXB7ELOdFaaNRNOp81%2bk%2bYuy461albgSlFxYV8Mn7gwY%2baOigPz0KoT9PqS8UzJyXdPhcPZ7BhAmSK4ON5KEXxZlrguSp8FxRkz8Z64T43uF2fEkRtRIDW6gkwqO783hp7XnNg125Hm/vbzuRYP8pu5vMUCQ4UL5eALMmYtvfLlXAKqv3U8glvp5rdR3JIlGSbACBQSUZAWB%2bf3zoIruTPh0v6Z/F5h2kxOhEIQNbqPPs7Vg%2b7AKnOnSOf2IGGZcd8f%2bmzh/9DcJ3fNbt6NDa/nP16iQutw8GfS4r0qEDwu3ICNkXSLTSytWLQ8ZxpcOzwJ7pyYBAUZYyFnqxsc/78RWBpPgBv/noRAJwvXMOlHKiAS6T6SY6j8cg6g0nJ4aXtyrOo0gjfLgRNbCPbn2CPYO%2bf2kIRjJdPFKwAufzkFalC6rCwY/nfVG%2bD1ljUM70etHVZ/PXHvPg43MUHo6xGcONP%2bssugr8fqrh2aT%2bCX0rxnd8dY7fvnO80PPPfTRapstD7/cjsh1xIXXHwJozAGNINx0bIvk3x/PIqbFawJdm8eAm%2b4tobhfa3Bvb8Nb6%2b5tITEhb15gUNp8cK%2b6cLiJmNgI/A80qPSxtG8eWnxVmax%2btKtS1H63ACq/tP3WaELlFzKiefSFwEsjkd2Bfz1IxMAykNg1axXwG%2bIHQR6O8A4L3sY790R/N3sYWpgNwROu7gQKEO3qVWPPJawPAd/Oi1%2bvAL%2b68/nm0f2x7%2bYy88ovadxcecv7uPgJZMFG2VLgChw/XQsAIkYjVtcf6g8NAYjegB8//Vo%2bOEbf54a5QrO2K8%2b%2bIoD3OcjaF6KOdu2rDUP%2bOxP3lHBdwNU8kLOXN4/2xj0lPSlEEAyPps9A26fmABVZyJxwzIdLubEYrSPRUImIjERtFszyr221QGPG6h4kr0ft3y6mWSvHGVZsZZyrv%2bEIjEuUi/8Mw7qEyByO%2bXx2Dpn3jLi5JxvEuRk8AScWtlufq099sXcLjTnKTngmuXI3bGIwHP289NnTf0udx4tXF8r%2bThjwKqfAX6u1fd3IpPcqRzdChVW%2bq8PVvKNDPq%2bef%2bZGstMbvmTO%2be4omSZDJiVGqX/uALqq%2bGxe6bAM8V4%2bEx3FcktSJ%2b1mea7lD3d6qsdC80H/PqOeNXhD9DvQfzpWWFW3Dfk96U84sfyhdcloIktUwEfS2RKF9Dyp3fOduOF1S4z%2bzsbspKfLycv4jIs2j4/svLgPFqsnixf8lsJUPweybx8cDZugGYd4ZXdumiL7femqq4uWGwe4EWzElWFIxar9KNSxN4%2bOrUFG5ZUeGv5MijaFyOVZnCpGq33q4FTIMyOkS7%2bcw48GrP2Nhu26e80n%2bSdzN2t6O3E5gVeMX4NP0PpTdVNt5V/oWu9b9Iy8H0fYJBGX6leBEX7cQubbvRZcf4FEkpqZS6ulSoPs8DDwNU6cNsCBp/EbO5y/RY%2bdStkI1/HxdErVZeSdvzBX3CCUlS60Un8%2bkFIigX0TzD%2baYjeS/0teG0AGKY2aEeuZWWfxjMioFS2nomE5QzQMOhSBTT9xu1w4YEZcGPuMoakMvBUg8FDffve3G3PcvKd1JZVYxL5GmDoOlV1aKrq6rvb/4A9/KT3VTB8nfiGNzrRCLrEb0nfwkHzs28PWSmBuwYkj/UMhqrZo4A1cDlpIZRgaVuUg%2bXqbsX/a%2bv%2bkno7v9JM%2bWMHvl%2b0JxbOfTwbbsatABqPueO47jju8NVQMmjBqWKvxf7GD6re63nwow87D4JSVTrf5N/R4oGpKuiTwK8Nvho%2b0cV3P3xGGpW0%2bergpXCx/0KoHLgYaHHMbT3gQkkBAEM08GjsGrgzeSWUb5/DARWnzXw852fKe33azyNZPyxaClVhCWDwWk9uxMejcYncG4OWsfP9FsC1QUtB66vOeThxswMPvh7rjdH/4biU3wf4vch/qMBdWNzgo%2bFRvTo0pavBW1MMPlvg0bDVrKzfPH1R3zns/tBVtEAjAUYS%2biWBLuo9%2bP5oNJR/ORXKMmM5UN7oKw8CP4%2blb%2bXxaKhauJS/T8SBmxoQlAKcaYevobkA5zLcHbJSD96bQPJS36kJ2ODOLW9CQFX4%2b78N%2bI3FH6KPi2gq%2bQiL632SHJmn%2biZ4baRFaWlRD4a%2bB6X95rGSvnMZksEtJMCrxdmTLJgI0tuL4VFRCFSVBcLdM6Fw91QY3D0dBveKg6H6bBDoN8xBiWsEYA%2blv5qPJ7mtgwv9FzIi%2bdbgd8Ucbut14IFEeSaiSjQjOQFu64QLvLKCr/9XH1r/DfysG5XEB6wOTukieWp%2bBI9kWpQOaHFu5IvcKnBpwCIiAe4jGTAcFz1MBuAmg3kLFxm1CrT/igEt7u/pX3C1J8JBmz4V9PFLgSFBtarB/sPX8zFqcOzz/RfAuf7zgYiW1cVAkGMgIogAbUAy/7c7yVPN12vw/pVp8N7EzcJ/gkQev7Lm47%2bi1Iu4xWXgIBbAhCzVvGHgg/K%2bC%2bC6bwJoRyWjfNcBeGj4MyIABms4SGnUWpDGJYDkvwbYsEQAJIY/ly1NoDGtwY8Baj7ejcHL0frrFYvLrqA2IQDH9NRUV4ekdBcGE3WAgqNJx4PoRJU9gAoGrOaD6EckbgSfTQRYqwBnogEo1qVrtAAbmAA/xW2Dy6Xn4ObUf0DNgJWYomRgdPaoDYgkc3CX7%2bFzCa%2b1gxPgzmg1VJwuhu81GWDov4qPq8yjEC1UYiRAB14pSJjmqNHvozar4PUVTQN%2bZfNWTBvLUPZJHPijcRve4JMTWJpMOZuCNsobFzYQ/X72Z1AFAA%2bS90J17yVQ7b4GtMPXgh5914BNcl/HQRvwTPeo6fD5Q7c1UN13OTyctg3uY39pUy7AgASMG2p4jGhBgnEtQDEADYRuOllUgSJOEZ5GHwbvJNV3GzGvO77HwRv8EjOIVZxEL7PMFPbrWIGD13Dw%2bvhPcfEG0GtyAPqg5byEP0vKe/WAKM/AE/u/tRrYtI%2bRPAm0qV8C9H8PwWses7xx7lqDSBQAEXT5tYSt/P/nPQzdoDJ4JTUe/N4HB1U144XPYGdnDCAGnnb4JI8Dr7MQGbyBg5dAl7gPwa80Lr4%2bYQ33xxyP4O8Dk8EnNNj/MQKE9TEFpoB2TFIwd9eRiU3b/VGpiAHHSgSOxMWUT7mk/oPVGwXeS1PHyg1ZvlY5TQevyJ%2brk3zfV5PBsdgvt6iKTm3CP0TGb1FB66UWcmHzDXhuEBFVTi%2b/Fvwv9f0tljcGYZI%2bRX4vzU/3o1P538RjCmz8567qsI3ib26mbGqDgeYGeCQSeOmXrG5u8EwJfmQkDNA1Y5P511XcjDX%2bb/N1cpTXjk3ujeBpMGgM8N8X/HbRP6UJlq8Nfgbye3TZSXKatmoKeP4yBg1v8EvlQaTZwc/4hKc67ZbcOtG%2bkeB14LsZsDRfIQe9p5qQ6jRKeTiSBqHBWCMm/n3A43nQGpAiPoQH96tAtypL5HmPRoMXwdl3C/n9ap7vvTSNB4%2bdreTzCIr0vHpqRLD7XcDXAgA2JlVY3E2u9RvTRNDT0Y4Tr1fLOBoPHjtbyecRckmray7ZE1Aj2KFra68bqAl%2bVvYIHq9XyzgaBP//I8xaMEz04FsAAAAASUVORK5CYII=' /%3e%3c/svg%3e"},"path":"/author/troes-retardat/"}]}}]}},"context":{}}